Chapter 5 Results | Cancer Deaths Rate Research
…
The distribution of incidence counts varies slightly among regions. Hence we can say the regions has weak effect on incidence counts.

To summarize, race seems to have the strongest association with Incidence counts.

5.2 The relationship between gender and breast cancer.

We aim to find a type of cancer that has largest incidence counts.

## # A tibble: 22 x 2
##    `Leading Cancer Sites`     Freq
##    <chr>                     <dbl>
##  1 Breast                  4432442
##  2 Lung and Bronchus       4237328
##  3 Prostate                4178907
##  4 Colon and Rectum        2928387
##  5 Urinary Bladder         1366819
##  6 Melanoma of the Skin    1287768
##  7 Non-Hodgkin Lymphoma    1265074
##  8 Kidney and Renal Pelvis 1025166
##  9 Leukemias                891625
## 10 Corpus Uteri             872060
## # ... with 12 more rows
…
